…
``` r
descargar.inei(encuesta = "ENAHO", modulo = 37, annos = 2011, tipo = "t2", dirdescarga = tempdir())
## Descargando 1 archivo.
```

Podemos leer ambos trimestres:

``` r
leidas <- leer.inei(encuesta = "ENAHO", modulo = 37, annos = 2011, tipo = c("t1","t2"), directorio = tempdir())
## Leyendo 2 archivos.
## Leyendo archivo 1 de 2.
## Leyendo archivo 2 de 2.
leidas
## $`2011_Modulo37_t1`
## # A tibble: 4,625 × 24
##    AÑO   MES   CONGLOME VIVIENDA HOGAR UBIGEO DOMINIO ESTRATO CODINFOR  P702
##    <chr> <chr> <chr>    <chr>    <chr> <chr>    <dbl>   <dbl> <chr>    <dbl>
##  1 2011  01    0007     049      11    010101       4       4 01           3
##  2 2011  01    0007     075      11    010101       4       4 02           5
##  3 2011  01    0027     047      11    010504       4       7 02           2
##  4 2011  01    0027     047      11    010504       4       7 02           3
##  5 2011  01    0027     047      11    010504       4       7 02           5
##  6 2011  01    0027     047      11    010504       4       7 02           5
##  7 2011  01    0027     108      11    010504       4       7 02           3
##  8 2011  01    0027     108      11    010504       4       7 02           4
##  9 2011  01    0027     109      11    010504       4       7 01           4
## 10 2011  01    0027     110      11    010504       4       7 02           4
## # ℹ 4,615 more rows
## # ℹ 14 more variables: P703 <dbl+lbl>, P704 <dbl+lbl>, P705 <dbl+lbl>,
## #   P7061 <dbl+lbl>, P7062 <dbl+lbl>, P7063 <dbl+lbl>, P7064 <dbl+lbl>,
## #   P7065 <dbl+lbl>, P706A1 <dbl+lbl>, P706A2 <dbl+lbl>, P706A3 <dbl+lbl>,
## #   P706A4 <dbl+lbl>, TICUEST01 <dbl+lbl>, FACTRIM <dbl>
## 
## $`2011_Modulo37_t2`
## # A tibble: 3,940 × 24
##    AÑO   MES   CONGLOME VIVIENDA HOGAR UBIGEO DOMINIO ESTRATO CODINFOR  P702
##    <chr> <chr> <chr>    <chr>    <chr> <chr>    <dbl>   <dbl> <chr>    <dbl>
##  1 2011  04    0001     019      11    010101       4       4 02           1
##  2 2011  04    0001     019      11    010101       4       4 02           2
##  3 2011  04    0001     019      11    010101       4       4 02           3
##  4 2011  04    0001     019      11    010101       4       4 02           4
##  5 2011  04    0001     019      11    010101       4       4 02           5
##  6 2011  04    0047     032      11    010201       7       4 02           2
##  7 2011  04    0047     032      11    010201       7       4 02           3
##  8 2011  04    0047     032      11    010201       7       4 02           4
##  9 2011  04    0047     069      22    010201       7       4 02           6
## 10 2011  04    0047     082      11    010201       7       4 02           1
## # ℹ 3,930 more rows
## # ℹ 14 more variables: P703 <dbl+lbl>, P704 <dbl+lbl>, P705 <dbl+lbl>,
## #   P7061 <dbl+lbl>, P7062 <dbl+lbl>, P7063 <dbl+lbl>, P7064 <dbl+lbl>,
## #   P7065 <dbl+lbl>, P706A1 <dbl+lbl>, P706A2 <dbl+lbl>, P706A3 <dbl+lbl>,
## #   P706A4 <dbl+lbl>, TICUEST01 <dbl+lbl>, FACTRIM <dbl>
```

Y, usando `combinar.inei()` (o el argumento `combinar` en `leer.inei`)
podemos combinar ambos trimestres. También podemos especificar si sólo
queremos combinar las variables comunes o todas las variables:

``` r
combinar.inei(x = leidas, solocomunes = FALSE)
## # A tibble: 8,565 × 24
##    AÑO   MES   CONGLOME VIVIENDA HOGAR UBIGEO DOMINIO ESTRATO CODINFOR  P702
##  * <chr> <chr> <chr>    <chr>    <chr> <chr>    <dbl>   <dbl> <chr>    <dbl>
##  1 2011  01    0007     049      11    010101       4       4 01           3
##  2 2011  01    0007     075      11    010101       4       4 02           5
##  3 2011  01    0027     047      11    010504       4       7 02           2
##  4 2011  01    0027     047      11    010504       4       7 02           3
##  5 2011  01    0027     047      11    010504       4       7 02           5
##  6 2011  01    0027     047      11    010504       4       7 02           5
##  7 2011  01    0027     108      11    010504       4       7 02           3
##  8 2011  01    0027     108      11    010504       4       7 02           4
##  9 2011  01    0027     109      11    010504       4       7 01           4
## 10 2011  01    0027     110      11    010504       4       7 02           4
## # ℹ 8,555 more rows
## # ℹ 14 more variables: P703 <dbl+lbl>, P704 <dbl+lbl>, P705 <dbl+lbl>,
## #   P7061 <dbl+lbl>, P7062 <dbl+lbl>, P7063 <dbl+lbl>, P7064 <dbl+lbl>,
## #   P7065 <dbl+lbl>, P706A1 <dbl+lbl>, P706A2 <dbl+lbl>, P706A3 <dbl+lbl>,
## #   P706A4 <dbl+lbl>, TICUEST01 <dbl+lbl>, FACTRIM <dbl>
```

## Leer bases directamente desde la web

Usando `leer.inei.web()` podemos leer las bases directamente desde la
web, aplicando las mismas reglas que `leer.inei()`:

``` r
leer.inei.web(encuesta = "ENAHO", modulo = 37, annos = 2011, tipo = c("t1"))
## Descargando 1 archivo.
## Leyendo 1 archivo.
## Leyendo archivo 1 de 1.
## # A tibble: 4,625 × 24
##    AÑO   MES   CONGLOME VIVIENDA HOGAR UBIGEO DOMINIO ESTRATO CODINFOR  P702
##    <chr> <chr> <chr>    <chr>    <chr> <chr>    <dbl>   <dbl> <chr>    <dbl>
##  1 2011  01    0007     049      11    010101       4       4 01           3
##  2 2011  01    0007     075      11    010101       4       4 02           5
##  3 2011  01    0027     047      11    010504       4       7 02           2
##  4 2011  01    0027     047      11    010504       4       7 02           3
##  5 2011  01    0027     047      11    010504       4       7 02           5
##  6 2011  01    0027     047      11    010504       4       7 02           5
##  7 2011  01    0027     108      11    010504       4       7 02           3
##  8 2011  01    0027     108      11    010504       4       7 02           4
##  9 2011  01    0027     109      11    010504       4       7 01           4
## 10 2011  01    0027     110      11    010504       4       7 02           4
## # ℹ 4,615 more rows
## # ℹ 14 more variables: P703 <dbl+lbl>, P704 <dbl+lbl>, P705 <dbl+lbl>,
## #   P7061 <dbl+lbl>, P7062 <dbl+lbl>, P7063 <dbl+lbl>, P7064 <dbl+lbl>,
## #   P7065 <dbl+lbl>, P706A1 <dbl+lbl>, P706A2 <dbl+lbl>, P706A3 <dbl+lbl>,
## #   P706A4 <dbl+lbl>, TICUEST01 <dbl+lbl>, FACTRIM <dbl>
```
