03 - Medidas de tendencia central • enaho
…
library(enaho)

Se pueden calcular medidas de tendencia central sobre cualquier
variable de un objeto leído con leer.inei() o
leer.inei.web(). Por ejemplo, para calcular las medidas de
tendencia central de la variable "P7061" del primer
trimestre de 2011, primero cargamos la base:

dir <- system.file("extdata", package = "enaho") # directorio con las bases
leido <- leer.inei(modulo = 37,periodos = 2011,tipo = c("t1"),directorio = dir)
#> Leyendo 1 archivo.
#> Leyendo archivo 1 de 1.
leido
#> # A tibble: 4,625 × 24
#>    AÑO   MES   CONGLOME VIVIENDA HOGAR UBIGEO DOMINIO ESTRATO CODINFOR  P702
#>    <chr> <chr> <chr>    <chr>    <chr> <chr>    <dbl>   <dbl> <chr>    <dbl>
#>  1 2011  01    0007     049      11    010101       4       4 01           3
#>  2 2011  01    0007     075      11    010101       4       4 02           5
#>  3 2011  01    0027     047      11    010504       4       7 02           2
#>  4 2011  01    0027     047      11    010504       4       7 02           3
#>  5 2011  01    0027     047      11    010504       4       7 02           5
#>  6 2011  01    0027     047      11    010504       4       7 02           5
#>  7 2011  01    0027     108      11    010504       4       7 02           3
#>  8 2011  01    0027     108      11    010504       4       7 02           4
#>  9 2011  01    0027     109      11    010504       4       7 01           4
#> 10 2011  01    0027     110      11    010504       4       7 02           4
#> # ℹ 4,615 more rows
#> # ℹ 14 more variables: P703 <dbl+lbl>, P704 <dbl+lbl>, P705 <dbl+lbl>,
#> #   P7061 <dbl+lbl>, P7062 <dbl+lbl>, P7063 <dbl+lbl>, P7064 <dbl+lbl>,
#> #   P7065 <dbl+lbl>, P706A1 <dbl+lbl>, P706A2 <dbl+lbl>, P706A3 <dbl+lbl>,
#> #   P706A4 <dbl+lbl>, TICUEST01 <dbl+lbl>, FACTRIM <dbl>
…
